Wypłata z bankomatu numer: 98
Stan przed operacją 900.0zł
Wypłacono 301.0zł  
Data:2018.11.08 19:37:03

Sprawdzono stan konta w bankomacie nr:98
Saldo: 599.0
Data:2018.11.08 19:37:03

Zapłata kartą
Nazwa sprzedawcy:McDonald
Stan przed operacją 599.0zł
Zaplacono 20.0zł  
Data:2018.11.08 19:37:03

Sprawdzono stan konta online
Saldo: 579.0
Data:2018.11.08 19:37:03

Przelew
Odbiorca:Piotr Nowak
Z tytułem:"Na imieniny" 
Stan przed operacją 579.0zł
Przelano 30.0zł  
Data:2018.11.08 19:37:03

Sprawdzono stan konta online
Saldo: 549.0
Data:2018.11.08 19:37:03

Wypłata w kasie: Kasa na rogu
Stan przed operacją 549.0zł
Wypłacono 50.0zł  
Data:2018.11.08 19:37:03

Sprawdzono stan konta w bankomacie nr:98
Saldo: 499.0
Data:2018.11.08 19:37:03

Otrzymano wynagrodzenie
Od firmy Zakis
Wpłacono 3000.0zł 
Stan po operacji 3499.0zł 
Data:2018.11.08 19:37:04

