Przelew
Nadawca:Jan Kowalski
Z tytułem: "Na imieniny"
Stan przed operacją 300.0zł
Przelano 30.0zł  
Data:2018.11.08 19:37:03

Sprawdzono stan konta online
Saldo: 330.0
Data:2018.11.08 19:37:04

Otrzymano zapomoge
Instytucja: MOPS
Wpłacono: 200.0zł 
Stan po operacji: 530.0zł 
Data:2018.11.08 19:37:04

